<job id="8309892" owner="mhofmann@redhat.com" result="Fail" status="Aborted" retention_tag="scratch">
  <whiteboard>abortfail</whiteboard>
  <recipeSet priority="Normal" response="ack" id="12369847">
    <recipe id="14613070" job_id="8309892" recipe_set_id="12369847" whiteboard="" role="None" kickstart_url="http://beaker.engineering.redhat.com/kickstart/12554006" ks_meta="" kernel_options="" kernel_options_post="" start_time="2023-09-14 13:22:31" finish_time="2023-09-14 14:59:40" duration="1:37:09" result="Fail" status="Aborted" distro="Fedora-Rawhide-20230914.n.0" arch="x86_64" family="Fedorarawhide" variant="Server" system="kvm-03-guest18.lab.eng.rdu2.redhat.com">
      <autopick random="false"/>
      <watchdog/>
      <installation install_started="2023-09-14 13:23:51" install_finished="2023-09-14 13:28:51" postinstall_finished="2023-09-14 13:30:25"/>
      <packages/>
      <ks_appends/>
      <roles>
        <role value="None">
          <system value="kvm-03-guest18.lab.eng.rdu2.redhat.com"/>
        </role>
      </roles>
      <repos/>
      <distroRequires>
        <and>
          <distro_family op="=" value="Fedorarawhide"/>
          <distro_variant op="=" value="Server"/>
        </and>
      </distroRequires>
      <hostRequires>
          <hostname op="like" value="kvm-%-guest%.lab.eng.rdu2.redhat.com"/>
      <system_type value="Machine"/></hostRequires>
      <partitions/>
      <logs>
        <log href="https://beaker.engineering.redhat.com/recipes/14613070/logs/console.log" name="console.log"/>
        <log href="https://beaker.engineering.redhat.com/recipes/14613070/logs/systemd_journal.log" name="systemd_journal.log"/>
        <log href="https://beaker.engineering.redhat.com/recipes/14613070/logs/anaconda.log" name="anaconda.log"/>
        <log href="https://beaker.engineering.redhat.com/recipes/14613070/logs/sys.log" name="sys.log"/>
        <log href="https://beaker.engineering.redhat.com/recipes/14613070/logs/storage.log" name="storage.log"/>
        <log href="https://beaker.engineering.redhat.com/recipes/14613070/logs/program.log" name="program.log"/>
        <log href="https://beaker.engineering.redhat.com/recipes/14613070/logs/ks.cfg" name="ks.cfg"/>
        <log href="https://beaker.engineering.redhat.com/recipes/14613070/logs/packaging.log" name="packaging.log"/>
        <log href="https://beaker.engineering.redhat.com/recipes/14613070/logs/lvm.log" name="lvm.log"/>
        <log href="https://beaker.engineering.redhat.com/recipes/14613070/logs/hawkey.log" name="hawkey.log"/>
        <log href="https://beaker.engineering.redhat.com/recipes/14613070/logs/boot.log" name="boot.log"/>
      </logs>
      <task name="abortfail" role="None" id="166170998" result="Fail" status="Aborted" start_time="2023-09-14 13:31:52" finish_time="2023-09-14 13:31:56" duration="0:00:04">
        <fetch url="https://gitlab.com/api/v4/projects/cki-project%2fdocumentation/repository/archive.zip#content/docs/test-maintainers/status-meaning/restraint/abortfail"/>
        <roles>
          <role value="None">
            <system value="kvm-03-guest18.lab.eng.rdu2.redhat.com"/>
          </role>
        </roles>
        <logs>
          <log href="https://beaker.engineering.redhat.com/recipes/14613070/tasks/166170998/logs/taskout.log" name="taskout.log"/>
          <log href="https://beaker.engineering.redhat.com/recipes/14613070/tasks/166170998/logs/harness.log" name="harness.log"/>
        </logs>
        <results>
          <result path="abortfail" start_time="2023-09-14 13:31:55" score="None" result="Fail" id="776340640">None<logs><log href="https://beaker.engineering.redhat.com/recipes/14613070/tasks/166170998/results/776340640/logs/dmesg.log" name="dmesg.log"/><log href="https://beaker.engineering.redhat.com/recipes/14613070/tasks/166170998/results/776340640/logs/avc.log" name="avc.log"/></logs></result>
          <result path="/" start_time="2023-09-14 13:31:56" score="0" result="Warn" id="776340646">None</result>
        </results>
      </task>
      <task name="pass" role="None" id="166170999" result="Warn" status="Aborted">
        <fetch url="https://gitlab.com/api/v4/projects/cki-project%2fdocumentation/repository/archive.zip#content/docs/test-maintainers/status-meaning/restraint/pass"/>
        <roles>
          <role value="None">
            <system value="kvm-03-guest18.lab.eng.rdu2.redhat.com"/>
          </role>
        </roles>
        <logs>
          <log href="https://beaker.engineering.redhat.com/recipes/14613070/tasks/166170999/logs/harness.log" name="harness.log"/>
        </logs>
        <results>
          <result path="/" start_time="2023-09-14 13:31:57" score="0" result="Warn" id="776340649">None</result>
        </results>
      </task>
      <reservesys duration="86400" when="always"/>
    </recipe>
  </recipeSet>
</job>
